Pharmacogenetics using PharmacoGx | Phil Chapman's Blog
…
#affymetrix data
colnames(affy_mat) <- paste0(colnames(affy_mat), '_affy' )
affy_df <- affy_mat %>% as.data.frame() %>% tibble::rownames_to_column('cell_line')

#combine into a single data frame
combined_df <- sens_df %>% 
    inner_join(genetic_df, by='cell_line') %>% 
    inner_join(affy_df, by='cell_line')

combined_df %>% tbl_df()

## # A tibble: 1,124 x 7
##    cell_line `Nutlin-3` Erlotinib TP53_mut EGFR_mut
##        <chr>      <dbl>     <dbl>   <fctr>   <fctr>
##  1     22RV1   7.892590        NA        1        0
##  2  23132-87   7.680031        NA        0        0
##  3       380         NA        NA     <NA>     <NA>
##  4      5637   6.214938        NA        1        0
##  5     639-V   7.358565        NA        1        0
##  6     647-V   6.072949        NA        1        0
##  7       697   8.694393  8.576254        0        0
##  8     769-P   7.176188        NA        0        0
##  9     786-0   6.995861        NA        1        0
## 10     8305C   6.225848        NA        1        0
## # ... with 1,114 more rows, and 2 more variables:
## #   ENSG00000141510_at_affy <dbl>, ENSG00000146648_at_affy <dbl>
…
